4_June_verification/Verification_4_6/run/transcript
# vsim top +UVM_TESTNAME=A_type_test +ARG_INST=SRwM
# vsim top "+UVM_TESTNAME=A_type_test" "+ARG_INST=SRwM" 
# Start time: 17:47:47 on Jun 05,2020
# ** Note: (vsim-3812) Design is being optimized...
# ** Warning: (vopt-2121) ../testing_leon/leon_seq_item.sv(117): Illegal concatenation of an unsized constant. Will treat it as a 32-bit value.
# ** Warning: (vopt-2121) ../testing_leon/leon_seq_item.sv(126): Illegal concatenation of an unsized constant. Will treat it as a 32-bit value.
# ** Warning: (vopt-2121) ../testing_leon/leon_seq_item.sv(147): Illegal concatenation of an unsized constant. Will treat it as a 32-bit value.
# ** Warning: (vopt-2121) ../common/inst_h/lubma.svh(12): Illegal concatenation of an unsized constant. Will treat it as a 32-bit value.
# ** Warning: (vopt-2121) ../common/inst_h/lubma.svh(13): Illegal concatenation of an unsized constant. Will treat it as a 32-bit value.
# ** Warning: (vopt-2121) ../common/inst_h/lubma.svh(14): Illegal concatenation of an unsized constant. Will treat it as a 32-bit value.
# ** Warning: (vopt-2121) ../common/inst_h/lubma.svh(15): Illegal concatenation of an unsized constant. Will treat it as a 32-bit value.
# ** Warning: (vopt-2121) ../common/inst_h/luhma.svh(12): Illegal concatenation of an unsized constant. Will treat it as a 32-bit value.
# ** Warning: (vopt-2121) ../common/inst_h/luhma.svh(13): Illegal concatenation of an unsized constant. Will treat it as a 32-bit value.
# ** Warning: (vopt-2121) ../common/inst_h/luhma.svh(14): Illegal concatenation of an unsized constant. Will treat it as a 32-bit value.
# ** Warning: (vopt-2121) ../common/inst_h/luhma.svh(15): Illegal concatenation of an unsized constant. Will treat it as a 32-bit value.
# ** Warning: (vopt-2121) ../common/inst_h/lubmarr.svh(13): Illegal concatenation of an unsized constant. Will treat it as a 32-bit value.
# ** Warning: (vopt-2121) ../common/inst_h/lubmarr.svh(14): Illegal concatenation of an unsized constant. Will treat it as a 32-bit value.
# ** Warning: (vopt-2121) ../common/inst_h/lubmarr.svh(15): Illegal concatenation of an unsized constant. Will treat it as a 32-bit value.
# ** Warning: (vopt-2121) ../common/inst_h/lubmarr.svh(16): Illegal concatenation of an unsized constant. Will treat it as a 32-bit value.
# ** Warning: (vopt-2121) ../common/inst_h/luhmarr.svh(13): Illegal concatenation of an unsized constant. Will treat it as a 32-bit value.
# ** Warning: (vopt-2121) ../common/inst_h/luhmarr.svh(14): Illegal concatenation of an unsized constant. Will treat it as a 32-bit value.
# ** Warning: (vopt-2121) ../common/inst_h/luhmarr.svh(15): Illegal concatenation of an unsized constant. Will treat it as a 32-bit value.
# ** Warning: (vopt-2121) ../common/inst_h/luhmarr.svh(16): Illegal concatenation of an unsized constant. Will treat it as a 32-bit value.
# ** Warning: (vopt-2121) ../common/inst_h/swap_byte.svh(14): Illegal concatenation of an unsized constant. Will treat it as a 32-bit value.
# ** Warning: (vopt-2121) ../common/inst_h/atomic_load_store.svh(17): Illegal concatenation of an unsized constant. Will treat it as a 32-bit value.
# ** Warning: (vopt-2121) ../common/inst_h/atomic_load_store.svh(18): Illegal concatenation of an unsized constant. Will treat it as a 32-bit value.
# ** Warning: (vopt-2121) ../common/inst_h/atomic_load_store.svh(19): Illegal concatenation of an unsized constant. Will treat it as a 32-bit value.
# ** Warning: (vopt-2121) ../common/inst_h/atomic_load_store.svh(20): Illegal concatenation of an unsized constant. Will treat it as a 32-bit value.
# ** Warning: (vopt-2121) ../common/inst_h/atomic_load_store_ans.svh(17): Illegal concatenation of an unsized constant. Will treat it as a 32-bit value.
# ** Warning: (vopt-2121) ../common/inst_h/atomic_load_store_ans.svh(18): Illegal concatenation of an unsized constant. Will treat it as a 32-bit value.
# ** Warning: (vopt-2121) ../common/inst_h/atomic_load_store_ans.svh(19): Illegal concatenation of an unsized constant. Will treat it as a 32-bit value.
# ** Warning: (vopt-2121) ../common/inst_h/atomic_load_store_ans.svh(20): Illegal concatenation of an unsized constant. Will treat it as a 32-bit value.
# ** Warning: ../common/sequences/GUVM_sequence.sv(13): (vopt-2250) Function "clp" has no return value assignment.
# //  Questa Sim-64
# //  Version 10.6c win64 Jul 26 2017
# //
# //  Copyright 1991-2017 Mentor Graphics Corporation
# //  All Rights Reserved.
# //
# //  QuestaSim and its associated documentation contain trade
# //  secrets and commercial or financial information that are the property of
# //  Mentor Graphics Corporation and are privileged, confidential,
# //  and exempt from disclosure under the Freedom of Information Act,
# //  5 U.S.C. Section 552. Furthermore, this information
# //  is prohibited from disclosure under the Trade Secrets Act,
# //  18 U.S.C. Section 1905.
# //
# Loading sv_std.std
# Loading work.iface__mti__sv__equiv__implct__pack(fast)
# Loading work.GUVM_interface(fast)
# Loading mtiUvm.uvm_pkg
# Loading work.target_package(fast)
# Loading work.top(fast)
# Loading mtiUvm.questa_uvm_pkg(fast)
# Loading std.standard
# Loading std.textio(body)
# Loading ieee.std_logic_1164(body)
# Loading work.target
# Loading ieee.std_logic_arith(body)
# Loading work.device
# Loading work.config
# Loading work.sparcv8
# Loading work.iface
# Loading work.amba
# Loading work.fpulib
# Loading work.tech_map
# Loading work.proc(rtl)#1
# Loading ieee.std_logic_unsigned(body)
# Loading work.macro(body)
# Loading work.iu(rtl)#1
# Loading work.multlib
# Loading work.mul(rtl)#1
# Loading work.tech_generic
# Loading work.hw_smult(rtl)#1
# Loading work.generic_smult(rtl)#1
# Loading work.div(rtl)#1
# Loading work.tech_atc25
# Loading work.tech_atc35
# Loading work.tech_fs90
# Loading work.tech_umc18
# Loading work.tech_virtex
# Loading work.regfile_iu(rtl)#1
# Loading work.generic_regfile_iu(rtl)#1
# Loading work.generic_dpram_ss(behav)#1
# ** Warning: (vsim-3764) ../common/Tests/GUVM_test.sv(21): Stand-alone call to function 'clp' treated as implicit void cast.
#    Time: 0 ns  Iteration: 0  Region: /target_package File: ../testing_leon/leon_pkg.sv
# ** Warning: (vsim-3764) ../common/Tests/A_type_test.sv(20): Stand-alone call to function 'clp' treated as implicit void cast.
#    Time: 0 ns  Iteration: 0  Region: /target_package File: ../testing_leon/leon_pkg.sv
# ** Warning: (vsim-8822) ../testing_leon/top.sv(9): [TFMPC] - Missing Verilog connection for formal VHDL port 'pcirst'.
#    Time: 0 ns  Iteration: 0  Instance: /top/dut File: ../../Implementation/dut_leon/proc.vhd
# ** Warning: (vsim-8822) ../testing_leon/top.sv(9): [TFMPC] - Missing Verilog connection for formal VHDL port 'apbi'.
#    Time: 0 ns  Iteration: 0  Instance: /top/dut File: ../../Implementation/dut_leon/proc.vhd
# ** Warning: (vsim-8822) ../testing_leon/top.sv(9): [TFMPC] - Missing Verilog connection for formal VHDL port 'apbo'.
#    Time: 0 ns  Iteration: 0  Instance: /top/dut File: ../../Implementation/dut_leon/proc.vhd
# ** Warning: (vsim-8822) ../testing_leon/top.sv(9): [TFMPC] - Missing Verilog connection for formal VHDL port 'ahbi'.
#    Time: 0 ns  Iteration: 0  Instance: /top/dut File: ../../Implementation/dut_leon/proc.vhd
# ** Warning: (vsim-8822) ../testing_leon/top.sv(9): [TFMPC] - Missing Verilog connection for formal VHDL port 'ahbo'.
#    Time: 0 ns  Iteration: 0  Instance: /top/dut File: ../../Implementation/dut_leon/proc.vhd
# Loading C:/questasim64_10.6c/uvm-1.1d\win64\uvm_dpi.dll
# ** Warning: (vsim-8684) No drivers exist on out port /top/dut/iu0/fpui.FpOp, and its initial value is not used.
# Therefore, simulation behavior may occur that is not in compliance with
# the VHDL standard as the initial values come from the base signal /top/dut/fpui.FpOp.
# ** Warning: (vsim-8684) No drivers exist on out port /top/dut/iu0/fpui.FpLd, and its initial value is not used.
# Therefore, simulation behavior may occur that is not in compliance with
# the VHDL standard as the initial values come from the base signal /top/dut/fpui.FpLd.
# ** Warning: (vsim-8684) No drivers exist on out port /top/dut/iu0/fpui.Reset, and its initial value is not used.
# Therefore, simulation behavior may occur that is not in compliance with
# the VHDL standard as the initial values come from the base signal /top/dut/fpui.Reset.
# ** Warning: (vsim-8684) No drivers exist on out port /top/dut/iu0/fpui.ss_scan_mode, and its initial value is not used.
# Therefore, simulation behavior may occur that is not in compliance with
# the VHDL standard as the initial values come from the base signal /top/dut/fpui.ss_scan_mode.
# ** Warning: (vsim-8684) No drivers exist on out port /top/dut/iu0/fpui.fp_ctl_scan_in, and its initial value is not used.
# Therefore, simulation behavior may occur that is not in compliance with
# the VHDL standard as the initial values come from the base signal /top/dut/fpui.fp_ctl_scan_in.
# ** Warning: (vsim-8684) No drivers exist on out port /top/dut/iu0/iuo.debug.de.annul, and its initial value is not used.
# Therefore, simulation behavior may occur that is not in compliance with
# the VHDL standard as the initial values come from the base signal /top/dut/iuol.debug.de.annul.
# ** Warning: (vsim-8684) No drivers exist on out port /top/dut/iu0/iuo.debug.de.ld, and its initial value is not used.
# Therefore, simulation behavior may occur that is not in compliance with
# the VHDL standard as the initial values come from the base signal /top/dut/iuol.debug.de.ld.
# ** Warning: (vsim-8684) No drivers exist on out port /top/dut/iu0/iuo.debug.de.pv, and its initial value is not used.
# Therefore, simulation behavior may occur that is not in compliance with
# the VHDL standard as the initial values come from the base signal /top/dut/iuol.debug.de.pv.
# ** Warning: (vsim-8684) No drivers exist on out port /top/dut/iu0/iuo.debug.de.rett, and its initial value is not used.
# Therefore, simulation behavior may occur that is not in compliance with
# the VHDL standard as the initial values come from the base signal /top/dut/iuol.debug.de.rett.
# ** Warning: (vsim-8684) No drivers exist on out port /top/dut/iu0/iuo.debug.de.trap, and its initial value is not used.
# Therefore, simulation behavior may occur that is not in compliance with
# the VHDL standard as the initial values come from the base signal /top/dut/iuol.debug.de.trap.
# ** Warning: (vsim-8684) No drivers exist on out port /top/dut/iu0/iuo.debug.de.inst(31 downto 0), and its initial value is not used.
# Therefore, simulation behavior may occur that is not in compliance with
# the VHDL standard as the initial values come from the base signal /top/dut/iuol.debug.de.inst(31 downto 0).
# ** Warning: (vsim-8684) No drivers exist on out port /top/dut/iu0/iuo.debug.de.pc(31 downto 2), and its initial value is not used.
# Therefore, simulation behavior may occur that is not in compliance with
# the VHDL standard as the initial values come from the base signal /top/dut/iuol.debug.de.pc(31 downto 2).
# ** Warning: (vsim-8684) No drivers exist on out port /top/dut/iu0/iuo.debug.de.cnt(1 downto 0), and its initial value is not used.
# Therefore, simulation behavior may occur that is not in compliance with
# the VHDL standard as the initial values come from the base signal /top/dut/iuol.debug.de.cnt(1 downto 0).
# ** Warning: (vsim-8684) No drivers exist on out port /top/dut/iu0/iuo.debug.de.tt(5 downto 0), and its initial value is not used.
# Therefore, simulation behavior may occur that is not in compliance with
# the VHDL standard as the initial values come from the base signal /top/dut/iuol.debug.de.tt(5 downto 0).
# ** Warning: (vsim-8684) No drivers exist on out port /top/dut/iu0/iuo.debug.de.rd(7 downto 0), and its initial value is not used.
# Therefore, simulation behavior may occur that is not in compliance with
# the VHDL standard as the initial values come from the base signal /top/dut/iuol.debug.de.rd(7 downto 0).
#  log /* -r 
# ** Warning: (vsim-WLF-5000) WLF file currently in use: vsim.wlf
#           File in use by: Randa  Hostname: DESKTOP-0MPNF9V  ProcessID: 13192
#           Attempting to use alternate WLF file "./wlft6njgzj".
# ** Warning: (vsim-WLF-5001) Could not open WLF file: vsim.wlf
#           Using alternate file: ./wlft6njgzj
#  run -all 
# ----------------------------------------------------------------
# UVM-1.1d
# (C) 2007-2013 Mentor Graphics Corporation
# (C) 2007-2013 Cadence Design Systems, Inc.
# (C) 2006-2013 Synopsys, Inc.
# (C) 2011-2013 Cypress Semiconductor Corp.
# ----------------------------------------------------------------
# 
#   ***********       IMPORTANT RELEASE NOTES         ************
# 
#   You are using a version of the UVM library that has been compiled
#   with `UVM_NO_DEPRECATED undefined.
#   See http://www.eda.org/svdb/view.php?id=3313 for more details.
# 
#   You are using a version of the UVM library that has been compiled
#   with `UVM_OBJECT_MUST_HAVE_CONSTRUCTOR undefined.
#   See http://www.eda.org/svdb/view.php?id=3770 for more details.
# 
#       (Specify +UVM_NO_RELNOTES to turn off this notice)
# 
# UVM_INFO verilog_src/questa_uvm_pkg-1.2/src/questa_uvm_pkg.sv(215) @ 0: reporter [Questa UVM] QUESTA_UVM-1.2.3
# UVM_INFO verilog_src/questa_uvm_pkg-1.2/src/questa_uvm_pkg.sv(217) @ 0: reporter [Questa UVM]  questa_uvm::init(+struct)
# UVM_INFO @ 0: reporter [RNTST] Running test A_type_test...
# UVM_INFO ../common/GUVM_env.sv(22) @ 0: uvm_test_top.env_h [] Called env::connect_phase
# test have started 
# child_seq,SRwM
# -------------------------------
# -------------------------------
# -------------------------------
# -------------------------------
# -------------------------------
# -------------------------------
# -------------------------------
# -------------------------------
# -------------------------------
# -------------------------------
# -------------------------------
# -------------------------------
# -------------------------------
# -------------------------------
# -------------------------------
# -------------------------------
# -------------------------------
# -------------------------------
# -------------------------------
# -------------------------------
# -------------------------------
# -------------------------------
# -------------------------------
# -------------------------------
# -------------------------------
# UVM_ERROR ../common/inst_h/swap.svh(44) @ 910: reporter [SWAP_FAIL] DUT Calculation=2985317987 SCOREBOARD Calculation=3230228097 DUT memory address Calculation=2985315207 SCOREBOARD memory address Calculation=2985315207 
# yay time to print my history
# --- reg_file Values are ---
# 	reg_file[0] = '{data:2985317987, add:20} b1f05663
# 	reg_file[1] = '{data:1189058957, add:0} 46df998d
# 	reg_file[2] = '{data:3230228097, add:9} c0895e81
# ---------------------------------
# seq#          0 pc         28 inst e8002000 result:00000000 mem_add:00000000 data_write_e:0000
# seq#          1 pc         32 inst 01000000 result:00000000 mem_add:00000000 data_write_e:0000
# seq#          2 pc         36 inst 01000000 result:00000000 mem_add:00000000 data_write_e:0000
# seq#          3 pc         40 inst 01000000 result:00000000 mem_add:00000000 data_write_e:0000
# seq#          4 pc         44 inst 01000000 result:00000000 mem_add:00000000 data_write_e:0000
# seq#          5 pc         48 inst 01000000 result:00000000 mem_add:00000000 data_write_e:0000
# seq#          6 pc         52 inst c0002000 result:00000000 mem_add:00000000 data_write_e:0000
# seq#          7 pc         56 inst 01000000 result:00000000 mem_add:00000000 data_write_e:0000
# seq#          8 pc         60 inst 01000000 result:00000000 mem_add:00000000 data_write_e:0000
# seq#          9 pc         64 inst 01000000 result:00000000 mem_add:00000000 data_write_e:0000
# seq#         10 pc         68 inst 01000000 result:00000000 mem_add:00000000 data_write_e:0000
# seq#         11 pc         72 inst 01000000 result:00000000 mem_add:00000000 data_write_e:0000
# seq#         12 pc         76 inst d27d3524 result:00000000 mem_add:00000000 data_write_e:0000
# seq#         13 pc         80 inst 01000000 result:00000000 mem_add:00000000 data_write_e:0000
# seq#         14 pc         80 inst 01000000 result:b1f05663 mem_add:00000000 data_write_e:0000
# seq#         15 pc         84 inst 01000000 result:00000000 mem_add:b1f04b87 data_write_e:0000
# seq#         16 pc         88 inst 01000000 result:00000000 mem_add:00000000 data_write_e:0000
# seq#         17 pc          X inst 01000000 result:00000000 mem_add:00000000 data_write_e:0000
# seq#         18 pc          X inst d2202000 result:00000000 mem_add:00000000 data_write_e:0000
# seq#         19 pc          X inst d2202000 result:00000000 mem_add:00000000 data_write_e:0000
# seq#         20 pc          X inst 01000000 result:00000000 mem_add:00000000 data_write_e:0000
# seq#         21 pc          X inst 01000000 result:00000000 mem_add:00000000 data_write_e:0000
# seq#         22 pc          X inst 01000000 result:00000000 mem_add:00000000 data_write_e:0000
# seq#         23 pc          X inst 01000000 result:00000000 mem_add:00000000 data_write_e:0000
# seq#         24 pc          X inst 01000000 result:00000000 mem_add:00000000 data_write_e:0000
# seq#         25 pc         76 inst d27d3524 result:00000000 mem_add:00000000 data_write_e:0000
# -------------------------------
# child_seq,SRwM
# -------------------------------
# -------------------------------
# -------------------------------
# -------------------------------
# -------------------------------
# -------------------------------
# -------------------------------
# -------------------------------
# -------------------------------
# -------------------------------
# -------------------------------
# -------------------------------
# -------------------------------
# -------------------------------
# -------------------------------
# -------------------------------
# -------------------------------
# -------------------------------
# -------------------------------
# -------------------------------
# -------------------------------
# -------------------------------
# -------------------------------
# -------------------------------
# -------------------------------
# UVM_INFO ../common/inst_h/swap.svh(40) @ 2270: reporter [SWAP_PASS] DUT Calculation=2654030908 SCOREBOARD Calculation=2654030908 DUT memory address Calculation=1160670292 SCOREBOARD memory address Calculation=1160670292 
# yay time to print my history
# --- reg_file Values are ---
# 	reg_file[0] = '{data:1160667530, add:12} 452e618a
# 	reg_file[1] = '{data:3964351704, add:0} ec4b34d8
# 	reg_file[2] = '{data:2654030908, add:18} 9e314c3c
# ---------------------------------
# seq#          0 pc         28 inst d8002000 result:00000000 mem_add:00000000 data_write_e:0000
# seq#          1 pc         32 inst 01000000 result:00000000 mem_add:00000000 data_write_e:0000
# seq#          2 pc         36 inst 01000000 result:00000000 mem_add:00000000 data_write_e:0000
# seq#          3 pc         40 inst 01000000 result:00000000 mem_add:00000000 data_write_e:0000
# seq#          4 pc         44 inst 01000000 result:00000000 mem_add:00000000 data_write_e:0000
# seq#          5 pc         48 inst 01000000 result:00000000 mem_add:00000000 data_write_e:0000
# seq#          6 pc         52 inst c0002000 result:00000000 mem_add:00000000 data_write_e:0000
# seq#          7 pc         56 inst 01000000 result:00000000 mem_add:00000000 data_write_e:0000
# seq#          8 pc         60 inst 01000000 result:00000000 mem_add:00000000 data_write_e:0000
# seq#          9 pc         64 inst 01000000 result:00000000 mem_add:00000000 data_write_e:0000
# seq#         10 pc         68 inst 01000000 result:00000000 mem_add:00000000 data_write_e:0000
# seq#         11 pc         72 inst 01000000 result:00000000 mem_add:00000000 data_write_e:0000
# seq#         12 pc         76 inst e47b2aca result:00000000 mem_add:00000000 data_write_e:0000
# seq#         13 pc         80 inst 01000000 result:00000000 mem_add:00000000 data_write_e:0000
# seq#         14 pc         80 inst 01000000 result:452e618a mem_add:00000000 data_write_e:0000
# seq#         15 pc         84 inst 01000000 result:00000000 mem_add:452e6c54 data_write_e:0000
# seq#         16 pc         88 inst 01000000 result:00000000 mem_add:00000000 data_write_e:0000
# seq#         17 pc         92 inst 01000000 result:00000000 mem_add:00000000 data_write_e:0000
# seq#         18 pc         96 inst e4202000 result:00000000 mem_add:00000000 data_write_e:0000
# seq#         19 pc        100 inst e4202000 result:00000000 mem_add:00000000 data_write_e:0000
# seq#         20 pc        100 inst 01000000 result:00000000 mem_add:00000000 data_write_e:0000
# seq#         21 pc        104 inst 01000000 result:9e314c3c mem_add:00000000 data_write_e:0000
# seq#         22 pc        108 inst 01000000 result:00000000 mem_add:9e314c3c data_write_e:0000
# seq#         23 pc        112 inst 01000000 result:00000000 mem_add:00000000 data_write_e:0000
# seq#         24 pc        116 inst 01000000 result:00000000 mem_add:00000000 data_write_e:0000
# seq#         25 pc         76 inst e47b2aca result:00000000 mem_add:00000000 data_write_e:0000
# -------------------------------
# child_seq,SRwM
# -------------------------------
# -------------------------------
# -------------------------------
# -------------------------------
# -------------------------------
# -------------------------------
# -------------------------------
# -------------------------------
# -------------------------------
# -------------------------------
# -------------------------------
# -------------------------------
# -------------------------------
# -------------------------------
# -------------------------------
# -------------------------------
# -------------------------------
# -------------------------------
# -------------------------------
# -------------------------------
# -------------------------------
# -------------------------------
# -------------------------------
# -------------------------------
# -------------------------------
# UVM_ERROR ../common/inst_h/swap.svh(44) @ 3630: reporter [SWAP_FAIL] DUT Calculation=3155462264 SCOREBOARD Calculation=3924555475 DUT memory address Calculation=3155466135 SCOREBOARD memory address Calculation=3155466135 
# yay time to print my history
# --- reg_file Values are ---
# 	reg_file[0] = '{data:3155462264, add:10} bc148878
# 	reg_file[1] = '{data:613108553, add:0} 248b4b49
# 	reg_file[2] = '{data:3924555475, add:7} e9ebf6d3
# ---------------------------------
# seq#          0 pc         28 inst d4002000 result:00000000 mem_add:00000000 data_write_e:0000
# seq#          1 pc         32 inst 01000000 result:00000000 mem_add:00000000 data_write_e:0000
# seq#          2 pc         36 inst 01000000 result:00000000 mem_add:00000000 data_write_e:0000
# seq#          3 pc         40 inst 01000000 result:00000000 mem_add:00000000 data_write_e:0000
# seq#          4 pc         44 inst 01000000 result:00000000 mem_add:00000000 data_write_e:0000
# seq#          5 pc         48 inst 01000000 result:00000000 mem_add:00000000 data_write_e:0000
# seq#          6 pc         52 inst c0002000 result:00000000 mem_add:00000000 data_write_e:0000
# seq#          7 pc         56 inst 01000000 result:00000000 mem_add:00000000 data_write_e:0000
# seq#          8 pc         60 inst 01000000 result:00000000 mem_add:00000000 data_write_e:0000
# seq#          9 pc         64 inst 01000000 result:00000000 mem_add:00000000 data_write_e:0000
# seq#         10 pc         68 inst 01000000 result:00000000 mem_add:00000000 data_write_e:0000
# seq#         11 pc         72 inst 01000000 result:00000000 mem_add:00000000 data_write_e:0000
# seq#         12 pc         76 inst ce7aaf1f result:00000000 mem_add:00000000 data_write_e:0000
# seq#         13 pc         80 inst 01000000 result:00000000 mem_add:00000000 data_write_e:0000
# seq#         14 pc         80 inst 01000000 result:bc148878 mem_add:00000000 data_write_e:0000
# seq#         15 pc         84 inst 01000000 result:00000000 mem_add:bc149797 data_write_e:0000
# seq#         16 pc         88 inst 01000000 result:00000000 mem_add:00000000 data_write_e:0000
# seq#         17 pc          X inst 01000000 result:00000000 mem_add:00000000 data_write_e:0000
# seq#         18 pc          X inst ce202000 result:00000000 mem_add:00000000 data_write_e:0000
# seq#         19 pc          X inst ce202000 result:00000000 mem_add:00000000 data_write_e:0000
# seq#         20 pc          X inst 01000000 result:00000000 mem_add:00000000 data_write_e:0000
# seq#         21 pc          X inst 01000000 result:00000000 mem_add:00000000 data_write_e:0000
# seq#         22 pc          X inst 01000000 result:00000000 mem_add:00000000 data_write_e:0000
# seq#         23 pc          X inst 01000000 result:00000000 mem_add:00000000 data_write_e:0000
# seq#         24 pc          X inst 01000000 result:00000000 mem_add:00000000 data_write_e:0000
# seq#         25 pc         76 inst ce7aaf1f result:00000000 mem_add:00000000 data_write_e:0000
# -------------------------------
# child_seq,SRwM
# -------------------------------
# -------------------------------
# -------------------------------
# -------------------------------
# -------------------------------
# -------------------------------
# -------------------------------
# -------------------------------
# -------------------------------
# -------------------------------
# -------------------------------
# -------------------------------
# -------------------------------
# -------------------------------
# -------------------------------
# -------------------------------
# -------------------------------
# -------------------------------
# -------------------------------
# -------------------------------
# -------------------------------
# -------------------------------
# -------------------------------
# -------------------------------
# -------------------------------
# UVM_ERROR ../common/inst_h/swap.svh(44) @ 4990: reporter [SWAP_FAIL] DUT Calculation=2897726041 SCOREBOARD Calculation=1237736851 DUT memory address Calculation=2897725933 SCOREBOARD memory address Calculation=2897725933 
# yay time to print my history
# --- reg_file Values are ---
# 	reg_file[0] = '{data:2897726041, add:18} acb7ca59
# 	reg_file[1] = '{data:2801589837, add:0} a6fcde4d
# 	reg_file[2] = '{data:1237736851, add:5} 49c65d93
# ---------------------------------
# seq#          0 pc         28 inst e4002000 result:00000000 mem_add:00000000 data_write_e:0000
# seq#          1 pc         32 inst 01000000 result:00000000 mem_add:00000000 data_write_e:0000
# seq#          2 pc         36 inst 01000000 result:00000000 mem_add:00000000 data_write_e:0000
# seq#          3 pc         40 inst 01000000 result:00000000 mem_add:00000000 data_write_e:0000
# seq#          4 pc         44 inst 01000000 result:00000000 mem_add:00000000 data_write_e:0000
# seq#          5 pc         48 inst 01000000 result:00000000 mem_add:00000000 data_write_e:0000
# seq#          6 pc         52 inst c0002000 result:00000000 mem_add:00000000 data_write_e:0000
# seq#          7 pc         56 inst 01000000 result:00000000 mem_add:00000000 data_write_e:0000
# seq#          8 pc         60 inst 01000000 result:00000000 mem_add:00000000 data_write_e:0000
# seq#          9 pc         64 inst 01000000 result:00000000 mem_add:00000000 data_write_e:0000
# seq#         10 pc         68 inst 01000000 result:00000000 mem_add:00000000 data_write_e:0000
# seq#         11 pc         72 inst 01000000 result:00000000 mem_add:00000000 data_write_e:0000
# seq#         12 pc         76 inst ca7cbf94 result:00000000 mem_add:00000000 data_write_e:0000
# seq#         13 pc         80 inst 01000000 result:00000000 mem_add:00000000 data_write_e:0000
# seq#         14 pc         80 inst 01000000 result:acb7ca59 mem_add:00000000 data_write_e:0000
# seq#         15 pc         84 inst 01000000 result:00000000 mem_add:acb7c9ed data_write_e:0000
# seq#         16 pc         88 inst 01000000 result:00000000 mem_add:00000000 data_write_e:0000
# seq#         17 pc          X inst 01000000 result:00000000 mem_add:00000000 data_write_e:0000
# seq#         18 pc          X inst ca202000 result:00000000 mem_add:00000000 data_write_e:0000
# seq#         19 pc          X inst ca202000 result:00000000 mem_add:00000000 data_write_e:0000
# seq#         20 pc          X inst 01000000 result:00000000 mem_add:00000000 data_write_e:0000
# seq#         21 pc          X inst 01000000 result:00000000 mem_add:00000000 data_write_e:0000
# seq#         22 pc          X inst 01000000 result:00000000 mem_add:00000000 data_write_e:0000
# seq#         23 pc          X inst 01000000 result:00000000 mem_add:00000000 data_write_e:0000
# seq#         24 pc          X inst 01000000 result:00000000 mem_add:00000000 data_write_e:0000
# seq#         25 pc         76 inst ca7cbf94 result:00000000 mem_add:00000000 data_write_e:0000
# -------------------------------
# child_seq,SRwM
# -------------------------------
# -------------------------------
# -------------------------------
# -------------------------------
# -------------------------------
# -------------------------------
# -------------------------------
# -------------------------------
# -------------------------------
# -------------------------------
# -------------------------------
# -------------------------------
# -------------------------------
# -------------------------------
# -------------------------------
# -------------------------------
# -------------------------------
# -------------------------------
# -------------------------------
# -------------------------------
# -------------------------------
# -------------------------------
# -------------------------------
# -------------------------------
# -------------------------------
# UVM_ERROR ../common/inst_h/swap.svh(44) @ 6350: reporter [SWAP_FAIL] DUT Calculation=1022176121 SCOREBOARD Calculation=3985473755 DUT memory address Calculation=1022174967 SCOREBOARD memory address Calculation=1022174967 
# yay time to print my history
# --- reg_file Values are ---
# 	reg_file[0] = '{data:1022176121, add:10} 3ced2b79
# 	reg_file[1] = '{data:2965171809, add:0} b0bcee61
# 	reg_file[2] = '{data:3985473755, add:31} ed8d80db
# ---------------------------------
# seq#          0 pc         28 inst d4002000 result:00000000 mem_add:00000000 data_write_e:0000
# seq#          1 pc         32 inst 01000000 result:00000000 mem_add:00000000 data_write_e:0000
# seq#          2 pc         36 inst 01000000 result:00000000 mem_add:00000000 data_write_e:0000
# seq#          3 pc         40 inst 01000000 result:00000000 mem_add:00000000 data_write_e:0000
# seq#          4 pc         44 inst 01000000 result:00000000 mem_add:00000000 data_write_e:0000
# seq#          5 pc         48 inst 01000000 result:00000000 mem_add:00000000 data_write_e:0000
# seq#          6 pc         52 inst c0002000 result:00000000 mem_add:00000000 data_write_e:0000
# seq#          7 pc         56 inst 01000000 result:00000000 mem_add:00000000 data_write_e:0000
# seq#          8 pc         60 inst 01000000 result:00000000 mem_add:00000000 data_write_e:0000
# seq#          9 pc         64 inst 01000000 result:00000000 mem_add:00000000 data_write_e:0000
# seq#         10 pc         68 inst 01000000 result:00000000 mem_add:00000000 data_write_e:0000
# seq#         11 pc         72 inst 01000000 result:00000000 mem_add:00000000 data_write_e:0000
# seq#         12 pc         76 inst fe7abb7e result:00000000 mem_add:00000000 data_write_e:0000
# seq#         13 pc         80 inst 01000000 result:00000000 mem_add:00000000 data_write_e:0000
# seq#         14 pc         80 inst 01000000 result:3ced2b79 mem_add:00000000 data_write_e:0000
# seq#         15 pc         84 inst 01000000 result:00000000 mem_add:3ced26f7 data_write_e:0000
# seq#         16 pc         88 inst 01000000 result:00000000 mem_add:00000000 data_write_e:0000
# seq#         17 pc          X inst 01000000 result:00000000 mem_add:00000000 data_write_e:0000
# seq#         18 pc          X inst fe202000 result:00000000 mem_add:00000000 data_write_e:0000
# seq#         19 pc          X inst fe202000 result:00000000 mem_add:00000000 data_write_e:0000
# seq#         20 pc          X inst 01000000 result:00000000 mem_add:00000000 data_write_e:0000
# seq#         21 pc          X inst 01000000 result:00000000 mem_add:00000000 data_write_e:0000
# seq#         22 pc          X inst 01000000 result:00000000 mem_add:00000000 data_write_e:0000
# seq#         23 pc          X inst 01000000 result:00000000 mem_add:00000000 data_write_e:0000
# seq#         24 pc          X inst 01000000 result:00000000 mem_add:00000000 data_write_e:0000
# seq#         25 pc         76 inst fe7abb7e result:00000000 mem_add:00000000 data_write_e:0000
# -------------------------------
# child_seq,SRwM
# -------------------------------
# -------------------------------
# -------------------------------
# -------------------------------
# -------------------------------
# -------------------------------
# -------------------------------
# -------------------------------
# -------------------------------
# -------------------------------
# -------------------------------
# -------------------------------
# -------------------------------
# -------------------------------
# -------------------------------
# -------------------------------
# -------------------------------
# -------------------------------
# -------------------------------
# -------------------------------
# -------------------------------
# -------------------------------
# -------------------------------
# -------------------------------
# -------------------------------
# UVM_ERROR ../common/inst_h/swap.svh(44) @ 7710: reporter [SWAP_FAIL] DUT Calculation=4064912612 SCOREBOARD Calculation=3738066621 DUT memory address Calculation=4064912918 SCOREBOARD memory address Calculation=4064912918 
# yay time to print my history
# --- reg_file Values are ---
# 	reg_file[0] = '{data:4064912612, add:20} f249a4e4
# 	reg_file[1] = '{data:1420327337, add:0} 54a879a9
# 	reg_file[2] = '{data:3738066621, add:12} dece5ebd
# ---------------------------------
# seq#          0 pc         28 inst e8002000 result:00000000 mem_add:00000000 data_write_e:0000
# seq#          1 pc         32 inst 01000000 result:00000000 mem_add:00000000 data_write_e:0000
# seq#          2 pc         36 inst 01000000 result:00000000 mem_add:00000000 data_write_e:0000
# seq#          3 pc         40 inst 01000000 result:00000000 mem_add:00000000 data_write_e:0000
# seq#          4 pc         44 inst 01000000 result:00000000 mem_add:00000000 data_write_e:0000
# seq#          5 pc         48 inst 01000000 result:00000000 mem_add:00000000 data_write_e:0000
# seq#          6 pc         52 inst c0002000 result:00000000 mem_add:00000000 data_write_e:0000
# seq#          7 pc         56 inst 01000000 result:00000000 mem_add:00000000 data_write_e:0000
